{
    "key": "group_605a33043e863",
    "title": "Data analysis",
    "fields": [
        {
            "key": "field_605a331a01da1",
            "label": "Google Analytics",
            "name": "google_analytics",
            "type": "text",
            "instructions": "Inserisci qui ID del codice di monitoraggio di Google Analytics",
            "required": 0,
            "conditional_logic": 0,
            "wrapper": {
                "width": "",
                "class": "",
                "id": ""
            },
            "default_value": "",
            "placeholder": "",
            "prepend": "",
            "append": "",
            "maxlength": ""
        }
    ],
    "location": [
        [
            {
                "param": "options_page",
                "operator": "==",
                "value": "theme-general-settings"
            }
        ]
    ],
    "menu_order": 0,
    "position": "normal",
    "style": "default",
    "label_placement": "top",
    "instruction_placement": "label",
    "hide_on_screen": "",
    "active": true,
    "description": "",
    "modified": 1616524243
}